<svg width="42" height="43" viewBox="0 0 42 43" fill="none" xmlns="http://www.w3.org/2000/svg">
<rect y="0.657654" width="42" height="41.9972" rx="20.9986" fill="white"/>
<path d="M22.397 30.6548V22.4588H25.162L25.573 19.2498H22.397V17.2058C22.397 16.2798 22.655 15.6458 23.984 15.6458H25.668V12.7848C24.8486 12.697 24.025 12.6546 23.201 12.6578C20.757 12.6578 19.079 14.1498 19.079 16.8888V19.2438H16.332V22.4528H19.085V30.6548H22.397Z" fill="#104584"/>
</svg>
