<svg width="30" height="29" viewBox="0 0 30 29" fill="none" xmlns="http://www.w3.org/2000/svg">
<rect x="0.311523" y="0.412231" width="28.9123" height="28.4167" rx="14.2084" fill="#0A0C3F"/>
<path d="M21.0919 10.0209V13.4706H17.6421" stroke="white" stroke-width="1.14992" stroke-linecap="round" stroke-linejoin="round"/>
<path d="M8.44287 19.2201V15.7704H11.8926" stroke="white" stroke-width="1.14992" stroke-linecap="round" stroke-linejoin="round"/>
<path d="M9.88602 12.8958C10.1776 12.0717 10.6732 11.335 11.3266 10.7543C11.9799 10.1736 12.7697 9.76787 13.6223 9.57497C14.4748 9.38206 15.3624 9.40828 16.2021 9.65116C17.0418 9.89404 17.8062 10.3457 18.4242 10.9639L21.092 13.4707M8.44287 15.7706L11.1107 18.2774C11.7286 18.8957 12.4931 19.3473 13.3328 19.5902C14.1725 19.8331 15.06 19.8593 15.9126 19.6664C16.7652 19.4735 17.555 19.0677 18.2083 18.487C18.8616 17.9063 19.3572 17.1696 19.6488 16.3455" stroke="white" stroke-width="1.14992" stroke-linecap="round" stroke-linejoin="round"/>
</svg>
